{
  "settingsVersion": "1.67.7",
  "exclusionRules": [],
  "filterLinkHints": false,
  "waitForEnterForFilteredHints": true,
  "hideHud": false,
  "keyMappings": "unmap r",
  "linkHintCharacters": "sadfjklewcmpgh",
  "linkHintNumbers": "0123456789",
  "newTabUrl": "about:newtab",
  "nextPatterns": "next,more,newer,>,›,→,»,≫,>>",
  "previousPatterns": "prev,previous,back,older,<,‹,←,«,≪,<<",
  "regexFindMode": false,
  "ignoreKeyboardLayout": true,
  "scrollStepSize": 60,
  "smoothScroll": true,
  "grabBackFocus": false,
  "searchEngines": "w: https://www.wikipedia.org/w/index.php?title=Special:Search&search=%s Wikipedia\ny: https://www.youtube.com/results?search_query=%s Youtube\na: https://wiki.archlinux.org/index.php?search=%s Arch wiki",
  "searchUrl": "https://duckduckgo.com/?q=",
  "userDefinedLinkHintCss": "div > .vimiumHintMarker {\n/* linkhint boxes */\nbackground: -webkit-gradient(linear, left top, left bottom, color-stop(0%,#FFF785),\n  color-stop(100%,#FFC542));\nborder: 1px solid #E3BE23;\n}\n\ndiv > .vimiumHintMarker span {\n/* linkhint text */\ncolor: black;\nfont-weight: bold;\nfont-size: 12px;\n}\n\ndiv > .vimiumHintMarker > .matchingCharacter {\n}"
}
